<svg width="24" height="24" viewBox="0 0 24 24" fill="none" xmlns="http://www.w3.org/2000/svg">
<path d="M2.43994 6.08324C2.43994 5.49838 2.91454 5.02378 3.4994 5.02378H7.4367V3.58486C7.4367 2.71135 8.14697 2 9.02156 2H14.8064C15.681 2 16.3913 2.71135 16.3913 3.58486V5.02378H20.3286C20.9135 5.02378 21.388 5.49838 21.388 6.08324V6.08973C21.3848 6.67243 20.9113 7.1427 20.3286 7.1427H19.4583L18.281 20.56V20.5632C18.1999 21.3741 17.508 22 16.7005 22H7.12751H7.11886C6.31562 21.9946 5.62805 21.3719 5.54805 20.573V20.5697L4.36967 7.1427H3.4994H3.49183C2.91021 7.13838 2.43994 6.66595 2.43994 6.08324ZM18.281 20.56V20.5632V20.56ZM7.61399 19.8822H16.214L17.3318 7.1427H6.49616L7.61399 19.8822ZM14.3859 16.8703C14.3826 17.3157 14.0216 17.6757 13.5751 17.6757H13.5697C13.1243 17.6724 12.7643 17.3114 12.7643 16.8649V10.3784C12.7643 9.93081 13.1275 9.56757 13.5751 9.56757H13.5805C14.0259 9.57081 14.3859 9.93189 14.3859 10.3784V16.8649V16.8703ZM11.1426 16.8703C11.1394 17.3157 10.7783 17.6757 10.3318 17.6757H10.3264C9.88102 17.6724 9.52102 17.3114 9.52102 16.8649V10.3784C9.52102 9.93081 9.88427 9.56757 10.3318 9.56757H10.3372C10.7826 9.57081 11.1426 9.93189 11.1426 10.3784V16.8649V16.8703ZM14.2735 4.11784H9.55454V5.02378H14.2735V4.11784Z" fill="white"/>
</svg>
