<svg width="16" height="20" viewBox="0 0 16 20" fill="none" xmlns="http://www.w3.org/2000/svg">
<path d="M12.663 0C14.479 0 15.956 1.477 15.956 3.293V16.718C15.95 18.529 14.476 20 12.663 20H3.293H3.282C1.471 19.994 0 18.52 0 16.707V3.293C0 1.477 1.477 0 3.293 0H12.663ZM3.285 2.013C2.582 2.017 2.013 2.589 2.013 3.293V16.715C2.017 17.418 2.589 17.988 3.293 17.988H12.663C13.37 17.987 13.944 17.413 13.944 16.707V3.293C13.944 2.587 13.37 2.013 12.663 2.013H3.293H3.285ZM8.819 10.67C9.375 10.67 9.824 11.121 9.824 11.677V11.683C9.821 12.236 9.372 12.683 8.819 12.683H4.051H4.044C3.492 12.679 3.045 12.23 3.045 11.677C3.045 11.121 3.495 10.67 4.051 10.67H8.819ZM11.901 7.622C12.457 7.622 12.907 8.072 12.907 8.628V8.634C12.903 9.187 12.455 9.634 11.901 9.634H4.051H4.044C3.492 9.63 3.045 9.181 3.045 8.628C3.045 8.072 3.495 7.621 4.051 7.622H11.901ZM11.901 4.574C12.457 4.574 12.907 5.023 12.907 5.58V5.585C12.903 6.139 12.455 6.585 11.901 6.585H4.051H4.044C3.492 6.581 3.045 6.133 3.045 5.58C3.045 5.023 3.495 4.574 4.051 4.574H11.901Z" fill="#3F71E2"/>
</svg>
