<svg width="24" height="24" viewBox="0 0 24 24" fill="none" xmlns="http://www.w3.org/2000/svg">
<g opacity="0.5">
<rect width="24" height="24" fill="white"/>
<path fill-rule="evenodd" clip-rule="evenodd" d="M19.6227 4.04854C19.358 4.30605 19.3014 4.68935 19.4528 5.00071L19.2181 5.22919C17.5998 3.85664 15.5598 2.93513 13.2979 2.67523V2.62917C13.8567 2.52262 14.2778 2.04377 14.2778 1.46935V1.18204C14.2778 0.528835 13.7333 0 13.0626 0H10.9374C10.2661 0 9.72237 0.529273 9.72237 1.18199V1.4693C9.72237 2.04388 10.1436 2.52236 10.7018 2.62904V2.67166C5.46658 3.26868 1.3145 7.46306 1.01696 12.7088C0.682479 18.601 5.3371 23.658 11.3938 23.9836C11.6002 23.9948 11.8045 24 12.0083 24C17.8413 24 22.6617 19.5586 22.9831 13.8882C23.1361 11.1921 22.243 8.67204 20.6515 6.69963L21.011 6.34988C21.2703 6.3876 21.5449 6.3107 21.7463 6.11464L21.8722 5.99236C22.2081 5.66483 22.2083 5.13367 21.872 4.80621L20.9677 3.92646C20.6308 3.59871 20.0847 3.59859 19.7478 3.92655L19.7477 3.9267L19.6227 4.04854ZM11.5086 21.9605C16.4554 22.2236 20.6344 18.5342 20.9042 13.776C21.1751 9.00073 17.4011 4.90009 12.4922 4.63621C12.3235 4.62736 12.1578 4.62279 11.9919 4.62279C7.26446 4.62279 3.35696 8.22334 3.09619 12.8198C2.82551 17.5963 6.59933 21.6966 11.5086 21.9605ZM12.0002 15.2672C13.1184 15.2672 14.0246 14.3856 14.0246 13.2979C14.0246 12.492 13.5265 11.8004 12.8142 11.4959V6.75699C12.8142 6.32 12.4498 5.96493 12.0002 5.96493C11.5506 5.96493 11.1863 6.32011 11.1863 6.75699V11.4953C10.4739 11.8 9.97596 12.4921 9.97596 13.2979C9.97596 14.3856 10.8821 15.2672 12.0002 15.2672Z" fill="#3F71E2"/>
</g>
</svg>
